…
Nos trae varias columnas, en las cuales están los años por separado.
Dice que son 65 variables pero son los años repetidos. Podemos armar una
columna que se llame “años”

``` r
library(dplyr)

datos2 <- datos%>%
  gather('1960' : '2020', key = "Año", value = "valor")

datos2
```

    ## # A tibble: 1,281 × 6
    ##    `Pais nombre` Pais  `serie Name`                     `serie Code` Año   valor
    ##    <chr>         <chr> <chr>                            <chr>        <chr> <chr>
    ##  1 Argentina     ARG   PIB (US$ a precios constantes d… NY.GDP.MKTP… 1960  1.16…
    ##  2 Argentina     ARG   Poblacion, total                 SP.POP.TOTL  1960  2048…
    ##  3 Argentina     ARG   Cajeros automaticos (por cada 1… FB.ATM.TOTL… 1960  ..   
    ##  4 Canadá        CAN   PIB (US$ a precios constantes d… NY.GDP.MKTP… 1960  2.94…
    ##  5 Canadá        CAN   Poblacion, total                 SP.POP.TOTL  1960  1790…
    ##  6 Canadá        CAN   Cajeros automaticos (por cada 1… FB.ATM.TOTL… 1960  ..   
    ##  7 Brasil        BRA   PIB (US$ a precios constantes d… NY.GDP.MKTP… 1960  2.47…
    ##  8 Brasil        BRA   Poblacion, total                 SP.POP.TOTL  1960  7217…
    ##  9 Brasil        BRA   Cajeros automaticos (por cada 1… FB.ATM.TOTL… 1960  ..   
    ## 10 Chile         CHL   PIB (US$ a precios constantes d… NY.GDP.MKTP… 1960  2937…
    ## # ℹ 1,271 more rows
…
Los datos anteriores aún no son “tidy data”, porque las variables de la
columna “Serie name” son repetitivas, se podrían tener en columnas
independientes, para hacer un registro más fácil.

Para eso se usa la función “spread”.

``` r
datos3 <- datos2%>%
  select(-('serie Code'))%>% #Porque esta columna queda inutil en esta organización, e impediria el nuevo arreglo
  spread(key="serie Name", value = "valor")

datos3
```

    ## # A tibble: 427 × 6
    ##    `Pais nombre` Pais  Año   Cajeros automaticos (por c…¹ PIB (US$ a precios c…²
    ##    <chr>         <chr> <chr> <chr>                        <chr>                 
    ##  1 Argentina     ARG   1960  ..                           1.16E+11              
    ##  2 Argentina     ARG   1961  ..                           1.22E+11              
    ##  3 Argentina     ARG   1962  ..                           1.21E+11              
    ##  4 Argentina     ARG   1963  ..                           1.14E+11              
    ##  5 Argentina     ARG   1964  ..                           1.26E+11              
    ##  6 Argentina     ARG   1965  ..                           1.39E+11              
    ##  7 Argentina     ARG   1966  ..                           1.38E+11              
    ##  8 Argentina     ARG   1967  ..                           1.43E+11              
    ##  9 Argentina     ARG   1968  ..                           1.50E+11              
    ## 10 Argentina     ARG   1969  ..                           1.64E+11              
    ## # ℹ 417 more rows
    ## # ℹ abbreviated names: ¹​`Cajeros automaticos (por cada 100.000 adultos)`,
    ## #   ²​`PIB (US$ a precios constantes de 2010)`
    ## # ℹ 1 more variable: `Poblacion, total` <chr>
…
### LIMPIAR Y CONVERTIR DATOS

Ahora tenemos que reemplzara los valores perdidos por “NA” y determinar
el tipo de variable.

``` r
datos <- datos3%>%
  mutate(`Cajeros automaticos (por cada 100.000 adultos)` = ifelse(`Cajeros automaticos (por cada 100.000 adultos)`=="..", NA, `Cajeros automaticos (por cada 100.000 adultos)`))%>%
  mutate(`PIB (US$ a precios constantes de 2010)`= ifelse(`PIB (US$ a precios constantes de 2010)`== "..", NA, `PIB (US$ a precios constantes de 2010)`))%>%
  mutate(`Poblacion, total` = ifelse(`Poblacion, total`=="..", NA, `Poblacion, total`))

datos3
```

    ## # A tibble: 427 × 6
    ##    `Pais nombre` Pais  Año   Cajeros automaticos (por c…¹ PIB (US$ a precios c…²
    ##    <chr>         <chr> <chr> <chr>                        <chr>                 
    ##  1 Argentina     ARG   1960  ..                           1.16E+11              
    ##  2 Argentina     ARG   1961  ..                           1.22E+11              
    ##  3 Argentina     ARG   1962  ..                           1.21E+11              
    ##  4 Argentina     ARG   1963  ..                           1.14E+11              
    ##  5 Argentina     ARG   1964  ..                           1.26E+11              
    ##  6 Argentina     ARG   1965  ..                           1.39E+11              
    ##  7 Argentina     ARG   1966  ..                           1.38E+11              
    ##  8 Argentina     ARG   1967  ..                           1.43E+11              
    ##  9 Argentina     ARG   1968  ..                           1.50E+11              
    ## 10 Argentina     ARG   1969  ..                           1.64E+11              
    ## # ℹ 417 more rows
    ## # ℹ abbreviated names: ¹​`Cajeros automaticos (por cada 100.000 adultos)`,
    ## #   ²​`PIB (US$ a precios constantes de 2010)`
    ## # ℹ 1 more variable: `Poblacion, total` <chr>
…
El año, Cajeros, PIB y población total no deberían ser caracteres. Se
puede cambiar con parse, pero hay otra forma

``` r
datos2 <- datos%>%
  mutate(Año = as.numeric(Año))%>%
  mutate(`Cajeros automaticos (por cada 100.000 adultos)`=as.numeric(`Cajeros automaticos (por cada 100.000 adultos)`))%>%
  mutate(`PIB (US$ a precios constantes de 2010)`=as.numeric(`PIB (US$ a precios constantes de 2010)`))%>%
  mutate(`Poblacion, total`=as.numeric(`Poblacion, total`))

datos2
```

    ## # A tibble: 427 × 6
    ##    `Pais nombre` Pais    Año Cajeros automaticos (por c…¹ PIB (US$ a precios c…²
    ##    <chr>         <chr> <dbl>                        <dbl>                  <dbl>
    ##  1 Argentina     ARG    1960                           NA           116000000000
    ##  2 Argentina     ARG    1961                           NA           122000000000
    ##  3 Argentina     ARG    1962                           NA           121000000000
    ##  4 Argentina     ARG    1963                           NA           114000000000
    ##  5 Argentina     ARG    1964                           NA           126000000000
    ##  6 Argentina     ARG    1965                           NA           139000000000
    ##  7 Argentina     ARG    1966                           NA           138000000000
    ##  8 Argentina     ARG    1967                           NA           143000000000
    ##  9 Argentina     ARG    1968                           NA           150000000000
    ## 10 Argentina     ARG    1969                           NA           164000000000
    ## # ℹ 417 more rows
    ## # ℹ abbreviated names: ¹​`Cajeros automaticos (por cada 100.000 adultos)`,
    ## #   ²​`PIB (US$ a precios constantes de 2010)`
    ## # ℹ 1 more variable: `Poblacion, total` <dbl>
…
    ## Rows: 28578 Columns: 7
    ## ── Column specification ────────────────────────────────────────────────────────
    ## Delimiter: ","
    ## chr (7): Grado, Apellido Paterno, Apellido Materno, Nombre, Nivel, Instituci...
    ## 
    ## ℹ Use `spec()` to retrieve the full column specification for this data.
    ## ℹ Specify the column types or set `show_col_types = FALSE` to quiet this message.

``` r
datos
```

    ## # A tibble: 28,578 × 7
    ##    Grado    `Apellido Paterno` `Apellido Materno` Nombre           Nivel
    ##    <chr>    <chr>              <chr>              <chr>            <chr>
    ##  1 DRA.     HERNANDEZ          LOPEZ              SILVIA HORTENCIA C    
    ##  2 DR.      FINKELSTEIN        SHAPIRO            DANIEL           1    
    ##  3 DR.      ALEJO              JAIME              ANTONIO          1    
    ##  4 MED.     GIL                CARRASCO           FELIX            1    
    ##  5 M. EN C. RUIZ               CRUZ               MATILDE          1    
    ##  6 MED.     JIMENEZ            ROMAN              JESUS            1    
    ##  7 DR.      HERNANDEZ          ZIMBRON            LUIS FERNANDO    1    
    ##  8 DR.      FROMOW             GUERRA             JORGE JANS       1    
    ##  9 MED.     QUIROZ             MERCADO            HUGO             3    
    ## 10 DR.      BENAVIDES          PERALES            GUILLERMO        2    
    ## # ℹ 28,568 more rows
    ## # ℹ 2 more variables: `Institucion de Adscripcion` <chr>,
    ## #   `Area del Conocimiento` <chr>

Quiero unir los nombres para tener el nombre completo, y quiero separar
en dos columnas la columna de área del conocimiento.

Para unir, se utiliza la función “unite”

``` r
datos <- datos%>%
  unite(Nombre, `Apellido Paterno`, `Apellido Materno`, Nombre, sep = " ")

datos  
```

    ## # A tibble: 28,578 × 5
    ##    Grado    Nombre           Nivel Institucion de Adscr…¹ Area del Conocimient…²
    ##    <chr>    <chr>            <chr> <chr>                  <chr>                 
    ##  1 DRA.     HERNANDEZ LOPEZ… C     AGROPECUARIA EL AVION… Área VI: BIOTECNOLOGÍ…
    ##  2 DR.      FINKELSTEIN SHA… 1     ARIZONA STATE UNIVERS… Área II: BIOLOGÍA Y Q…
    ##  3 DR.      ALEJO JAIME ANT… 1     ASOCIACION MEXICANA D… Área V: CIENCIAS SOCI…
    ##  4 MED.     GIL CARRASCO FE… 1     ASOCIACION PARA EVITA… Área III: MEDICINA Y …
    ##  5 M. EN C. RUIZ CRUZ MATIL… 1     ASOCIACION PARA EVITA… Área III: MEDICINA Y …
    ##  6 MED.     JIMENEZ ROMAN J… 1     ASOCIACION PARA EVITA… Área III: MEDICINA Y …
    ##  7 DR.      HERNANDEZ ZIMBR… 1     ASOCIACION PARA EVITA… Área III: MEDICINA Y …
    ##  8 DR.      FROMOW GUERRA J… 1     ASOCIACION PARA EVITA… Área III: MEDICINA Y …
    ##  9 MED.     QUIROZ MERCADO … 3     ASOCIACION PARA EVITA… Área III: MEDICINA Y …
    ## 10 DR.      BENAVIDES PERAL… 2     BANCO DE MEXICO        Área V: CIENCIAS SOCI…
    ## # ℹ 28,568 more rows
    ## # ℹ abbreviated names: ¹​`Institucion de Adscripcion`, ²​`Area del Conocimiento`

No quedan las columnas que se unieron, ellas se eliminan. ” ” me separa
los nombres con un espacio, si no, quedarían pegados

``` r
datos <- datos%>%
  separate(`Area del Conocimiento`, into = c("cve_area", "area"), sep = ":")

datos
```

    ## # A tibble: 28,578 × 6
    ##    Grado    Nombre                   Nivel Institucion de Adscr…¹ cve_area area 
    ##    <chr>    <chr>                    <chr> <chr>                  <chr>    <chr>
    ##  1 DRA.     HERNANDEZ LOPEZ SILVIA … C     AGROPECUARIA EL AVION… Área VI  " BI…
    ##  2 DR.      FINKELSTEIN SHAPIRO DAN… 1     ARIZONA STATE UNIVERS… Área II  " BI…
    ##  3 DR.      ALEJO JAIME ANTONIO      1     ASOCIACION MEXICANA D… Área V   " CI…
    ##  4 MED.     GIL CARRASCO FELIX       1     ASOCIACION PARA EVITA… Área III " ME…
    ##  5 M. EN C. RUIZ CRUZ MATILDE        1     ASOCIACION PARA EVITA… Área III " ME…
    ##  6 MED.     JIMENEZ ROMAN JESUS      1     ASOCIACION PARA EVITA… Área III " ME…
    ##  7 DR.      HERNANDEZ ZIMBRON LUIS … 1     ASOCIACION PARA EVITA… Área III " ME…
    ##  8 DR.      FROMOW GUERRA JORGE JANS 1     ASOCIACION PARA EVITA… Área III " ME…
    ##  9 MED.     QUIROZ MERCADO HUGO      3     ASOCIACION PARA EVITA… Área III " ME…
    ## 10 DR.      BENAVIDES PERALES GUILL… 2     BANCO DE MEXICO        Área V   " CI…
    ## # ℹ 28,568 more rows
    ## # ℹ abbreviated name: ¹​`Institucion de Adscripcion`
