…
``` r
enigh%>%
  count(cut_width(ing_cor,1000, boundary=0))
```

    ## # A tibble: 509 × 2
    ##    `cut_width(ing_cor, 1000, boundary = 0)`     n
    ##    <fct>                                    <int>
    ##  1 [0,1000]                                    14
    ##  2 (1000,2000]                                 33
    ##  3 (2000,3000]                                106
    ##  4 (3000,4000]                                223
    ##  5 (4000,5000]                                394
    ##  6 (5000,6000]                                542
    ##  7 (6000,7000]                                683
    ##  8 (7000,8000]                                780
    ##  9 (8000,9000]                                898
    ## 10 (9000,1e+04]                               922
    ## # ℹ 499 more rows

``` r
ingresos <- enigh%>%
  filter(ing_cor<100000)

ingresos
```

    ## # A tibble: 69,046 × 26
    ##    folioviv  foliohog ubica_geo tam_loc est_socio est_dis upm   factor clase_hog
    ##    <chr>        <dbl> <chr>       <dbl>     <dbl> <chr>   <chr>  <dbl>     <dbl>
    ##  1 01000136…        1 01001           1         3 002     0000…    175         2
    ##  2 01000136…        1 01001           1         3 002     0000…    175         2
    ##  3 01000136…        1 01001           1         3 002     0000…    175         2
    ##  4 01000136…        1 01001           1         3 002     0000…    175         2
    ##  5 01000267…        1 01001           1         3 002     0000…    189         1
    ##  6 01000267…        1 01001           1         3 002     0000…    189         2
    ##  7 01000272…        1 01001           1         3 002     0000…    186         2
    ##  8 01000272…        1 01001           1         3 002     0000…    186         1
    ##  9 01000272…        1 01001           1         3 002     0000…    186         2
    ## 10 01000455…        1 01001           1         3 002     0000…    186         2
    ## # ℹ 69,036 more rows
    ## # ℹ 17 more variables: sexo_jefe <dbl>, edad_jefe <dbl>, educa_jefe <chr>,
    ## #   tot_integ <dbl>, percep_ing <dbl>, ing_cor <dbl>, ingtrab <dbl>,
    ## #   gasto_mon <dbl>, alimentos <dbl>, vesti_calz <dbl>, vivienda <dbl>,
    ## #   limpieza <dbl>, salud <dbl>, transporte <dbl>, educa_espa <dbl>,
    ## #   personales <dbl>, transf_gas <dbl>
…
``` r
ingresos <- enigh%>%
  filter(ing_cor<200000)

ingresos
```

    ## # A tibble: 73,718 × 26
    ##    folioviv  foliohog ubica_geo tam_loc est_socio est_dis upm   factor clase_hog
    ##    <chr>        <dbl> <chr>       <dbl>     <dbl> <chr>   <chr>  <dbl>     <dbl>
    ##  1 01000136…        1 01001           1         3 002     0000…    175         2
    ##  2 01000136…        1 01001           1         3 002     0000…    175         2
    ##  3 01000136…        1 01001           1         3 002     0000…    175         2
    ##  4 01000136…        1 01001           1         3 002     0000…    175         2
    ##  5 01000267…        1 01001           1         3 002     0000…    189         1
    ##  6 01000267…        1 01001           1         3 002     0000…    189         2
    ##  7 01000267…        1 01001           1         3 002     0000…    189         2
    ##  8 01000272…        1 01001           1         3 002     0000…    186         3
    ##  9 01000272…        1 01001           1         3 002     0000…    186         2
    ## 10 01000272…        1 01001           1         3 002     0000…    186         1
    ## # ℹ 73,708 more rows
    ## # ℹ 17 more variables: sexo_jefe <dbl>, edad_jefe <dbl>, educa_jefe <chr>,
    ## #   tot_integ <dbl>, percep_ing <dbl>, ing_cor <dbl>, ingtrab <dbl>,
    ## #   gasto_mon <dbl>, alimentos <dbl>, vesti_calz <dbl>, vivienda <dbl>,
    ## #   limpieza <dbl>, salud <dbl>, transporte <dbl>, educa_espa <dbl>,
    ## #   personales <dbl>, transf_gas <dbl>
…
``` r
ingresos_trabajo <- enigh%>%
  filter(ingtrab > 0 & ingtrab < 150000)

ingresos_trabajo
```

    ## # A tibble: 66,137 × 26
    ##    folioviv  foliohog ubica_geo tam_loc est_socio est_dis upm   factor clase_hog
    ##    <chr>        <dbl> <chr>       <dbl>     <dbl> <chr>   <chr>  <dbl>     <dbl>
    ##  1 01000136…        1 01001           1         3 002     0000…    175         2
    ##  2 01000136…        1 01001           1         3 002     0000…    175         2
    ##  3 01000136…        1 01001           1         3 002     0000…    175         2
    ##  4 01000136…        1 01001           1         3 002     0000…    175         2
    ##  5 01000267…        1 01001           1         3 002     0000…    189         2
    ##  6 01000267…        1 01001           1         3 002     0000…    189         1
    ##  7 01000267…        1 01001           1         3 002     0000…    189         2
    ##  8 01000272…        1 01001           1         3 002     0000…    186         3
    ##  9 01000272…        1 01001           1         3 002     0000…    186         2
    ## 10 01000272…        1 01001           1         3 002     0000…    186         1
    ## # ℹ 66,127 more rows
    ## # ℹ 17 more variables: sexo_jefe <dbl>, edad_jefe <dbl>, educa_jefe <chr>,
    ## #   tot_integ <dbl>, percep_ing <dbl>, ing_cor <dbl>, ingtrab <dbl>,
    ## #   gasto_mon <dbl>, alimentos <dbl>, vesti_calz <dbl>, vivienda <dbl>,
    ## #   limpieza <dbl>, salud <dbl>, transporte <dbl>, educa_espa <dbl>,
    ## #   personales <dbl>, transf_gas <dbl>
…
El ingreso per capita permite hacer una ponderación por el número de
personas

``` r
enigh <- enigh%>%
  mutate(ing_per_cap = ing_cor/tot_integ)

enigh
```

    ## # A tibble: 74,647 × 27
    ##    folioviv  foliohog ubica_geo tam_loc est_socio est_dis upm   factor clase_hog
    ##    <chr>        <dbl> <chr>       <dbl>     <dbl> <chr>   <chr>  <dbl> <chr>    
    ##  1 01000136…        1 01001           1         3 002     0000…    175 Nuclear  
    ##  2 01000136…        1 01001           1         3 002     0000…    175 Nuclear  
    ##  3 01000136…        1 01001           1         3 002     0000…    175 Nuclear  
    ##  4 01000136…        1 01001           1         3 002     0000…    175 Nuclear  
    ##  5 01000136…        1 01001           1         3 002     0000…    175 Nuclear  
    ##  6 01000267…        1 01001           1         3 002     0000…    189 Nuclear  
    ##  7 01000267…        1 01001           1         3 002     0000…    189 Uniperso…
    ##  8 01000267…        1 01001           1         3 002     0000…    189 Nuclear  
    ##  9 01000267…        1 01001           1         3 002     0000…    189 Nuclear  
    ## 10 01000272…        1 01001           1         3 002     0000…    186 Ampliado 
    ## # ℹ 74,637 more rows
    ## # ℹ 18 more variables: sexo_jefe <chr>, edad_jefe <dbl>, educa_jefe <chr>,
    ## #   tot_integ <dbl>, percep_ing <dbl>, ing_cor <dbl>, ingtrab <dbl>,
    ## #   gasto_mon <dbl>, alimentos <dbl>, vesti_calz <dbl>, vivienda <dbl>,
    ## #   limpieza <dbl>, salud <dbl>, transporte <dbl>, educa_espa <dbl>,
    ## #   personales <dbl>, transf_gas <dbl>, ing_per_cap <dbl>
…
Se puede hacer tambien en tablas.

``` r
enigh%>%
  count(educa_jefe, clase_hog)
```

    ## # A tibble: 44 × 3
    ##    educa_jefe clase_hog       n
    ##    <chr>      <chr>       <int>
    ##  1 Posgrado   Ampliado      182
    ##  2 Posgrado   Compuesto       3
    ##  3 Posgrado   Corresidnte     9
    ##  4 Posgrado   Nuclear       864
    ##  5 Posgrado   Unipersonal   204
    ##  6 Preescolar Ampliado     5902
    ##  7 Preescolar Compuesto     146
    ##  8 Preescolar Corresidnte    67
    ##  9 Preescolar Nuclear     11546
    ## 10 Preescolar Unipersonal  2808
    ## # ℹ 34 more rows
…
