…
    ## # A tibble: 0 × 2
    ## # ℹ 2 variables: folioviv <chr>, n <int>

Esto significa que la llave está correctamente dada

``` r
hogares
```

    ## # A tibble: 2,152 × 9
    ##    folioviv   foliohog ubica_geo clase_hog ing_cor gasto_mon alimentos salud
    ##    <chr>      <chr>    <chr>     <chr>       <dbl>     <dbl>     <dbl> <dbl>
    ##  1 1400180001 1        14039     2          28869.    16068.     8511.    0 
    ##  2 1400180002 1        14039     3          57237.    32342.    12793.    0 
    ##  3 1400180005 1        14039     1          32527.    24481.     9148.    0 
    ##  4 1400180006 1        14039     1          28381.    17468.     7579.    0 
    ##  5 1400189601 1        14039     2          39775.    70465.    21188.    0 
    ##  6 1400189603 1        14039     2         102717.    56377.    13731. 3073.
    ##  7 1400189604 1        14039     2          91475.    43816.    12568.  154.
    ##  8 1400189605 1        14039     2          55828.    60636.    15300.    0 
    ##  9 1400189606 1        14039     2          40313.    12303.     5901. 1027.
    ## 10 1400189606 2        14039     2          23390.    21947.    14374.  318.
    ## # ℹ 2,142 more rows
    ## # ℹ 1 more variable: educa_espa <dbl>
…
Hay 2 casas que tienen 4 hogares/famlias. Se ve que el foliohog por si
solo no puede ser la llave

``` r
hogares%>%
  count(foliohog,folioviv)
```

    ## # A tibble: 2,152 × 3
    ##    foliohog folioviv       n
    ##    <chr>    <chr>      <int>
    ##  1 1        1400180001     1
    ##  2 1        1400180002     1
    ##  3 1        1400180005     1
    ##  4 1        1400180006     1
    ##  5 1        1400189601     1
    ##  6 1        1400189603     1
    ##  7 1        1400189604     1
    ##  8 1        1400189605     1
    ##  9 1        1400189606     1
    ## 10 1        1400264701     1
    ## # ℹ 2,142 more rows
…
    ## # A tibble: 0 × 3
    ## # ℹ 3 variables: foliohog <chr>, folioviv <chr>, n <int>

El trabajo es el nivel más bajo, por lo cual su código de identificación
o llave será el resultado de unir el folio de vivienda, el folio del
hogar, el número de la persona y el id del trabajo.

``` r
trabajos%>%
  count(foliohog,folioviv, numren, id_trabajo)
```

    ## # A tibble: 4,205 × 5
    ##    foliohog folioviv   numren id_trabajo     n
    ##    <chr>    <chr>      <chr>  <chr>      <int>
    ##  1 1        1400180002 01     1              1
    ##  2 1        1400180002 04     1              1
    ##  3 1        1400180005 01     1              1
    ##  4 1        1400180006 01     1              1
    ##  5 1        1400189601 01     1              1
    ##  6 1        1400189601 02     1              1
    ##  7 1        1400189601 04     1              1
    ##  8 1        1400189603 02     1              1
    ##  9 1        1400189603 02     2              1
    ## 10 1        1400189604 01     1              1
    ## # ℹ 4,195 more rows
…
El más utlizado es unión interior

### UNIONES ENIGH

Vamos a contestar la pregunta: ¿Cuáles son los conceptos más comunes por
los cuales hombres y mujeres obtienen ingresos?

``` r
ingresos <- left_join(ingresos, personas, by=c("folioviv", "foliohog", "numren"))

ingresos
```

    ## # A tibble: 10,919 × 11
    ##    folioviv  foliohog numren clave ing_tri sexo   edad disc1 hablaind alfabetism
    ##    <chr>     <chr>    <chr>  <chr>   <dbl> <chr> <dbl> <chr> <chr>    <chr>     
    ##  1 14001800… 1        02     P044    1702. 2        73 1     2        1         
    ##  2 14001800… 1        02     P040    3228. 2        73 1     2        1         
    ##  3 14001800… 1        01     P032    6457. 1        81 2     2        1         
    ##  4 14001800… 1        01     P023    5870. 1        81 2     2        1         
    ##  5 14001800… 1        01     P024    1761. 1        78 2     2        1         
    ##  6 14001800… 1        01     P044    1702. 1        78 2     2        1         
    ##  7 14001800… 1        02     P040    1908. 2        70 4     2        1         
    ##  8 14001800… 1        02     P044    1702. 2        70 4     2        1         
    ##  9 14001800… 1        04     P001   23478. 1        41 8     2        1         
    ## 10 14001800… 1        01     P003    7435. 1        78 2     2        1         
    ## # ℹ 10,909 more rows
    ## # ℹ 1 more variable: asis_esc <chr>

``` r
ingresos <- ingresos%>%
  count(sexo, clave)%>%
  arrange(desc(n), sexo)

ingresos
```

    ## # A tibble: 132 × 3
    ##    sexo  clave     n
    ##    <chr> <chr> <int>
    ##  1 1     P001   1715
    ##  2 2     P001   1118
    ##  3 1     P009    819
    ##  4 2     P009    591
    ##  5 2     P040    524
    ##  6 2     P042    328
    ##  7 1     P022    279
    ##  8 1     P008    275
    ##  9 1     P040    270
    ## 10 1     P032    193
    ## # ℹ 122 more rows
