…
``` r
setwd("C:/Users/david/OneDrive/Escritorio/Personal/a2/Curso - R/R/R")
```

``` r
library(readxl)

enoe <- read_excel("C:/Users/david/OneDrive/Escritorio/Personal/a2/Curso - R/3. GGPlot2/mu_enoe.xlsx")

enoe
```

    ## # A tibble: 10,280 × 12
    ##    estado     sex     edad asiste pos_ocu ing_salarios niv_edu anios_esc hrsocup
    ##    <chr>      <chr>  <dbl> <chr>  <chr>   <chr>        <chr>       <dbl>   <dbl>
    ##  1 Hidalgo    Mujer     56 No     Trabaj… Más de 1 ha… Secund…        12      45
    ##  2 Durango    Hombre    52 No     Trabaj… Más de 3 ha… Medio …        17      66
    ##  3 Jalisco    Hombre    25 No     Trabaj… Más de 3 ha… Medio …        15      48
    ##  4 Tabasco    Mujer     50 No     Trabaj… Más de 1 ha… Secund…         9      46
    ##  5 Tabasco    Mujer     41 No     Trabaj… Hasta un sa… Medio …        17       5
    ##  6 Nuevo León Mujer     36 No     Trabaj… Más de 1 ha… Secund…         9      50
    ##  7 Zacatecas  Mujer     23 Si     Trabaj… Más de 1 ha… Medio …        16      48
    ##  8 Colima     Hombre    59 No     Trabaj… Más de 1 ha… Primar…         4      28
    ##  9 Sinaloa    Hombre    37 No     Trabaj… Más de 1 ha… Secund…         9      48
    ## 10 Sinaloa    Hombre    18 No     Trabaj… Más de 1 ha… Prrima…         8      48
    ## # ℹ 10,270 more rows
    ## # ℹ 3 more variables: ingreso_mensual <dbl>, num_trabajos <chr>,
    ## #   tipo_empleo <chr>
…
