…
data frame es un lenguaje muy obsoleto. Ahora se usan Tibbles. Es una
tabla, pero la diferencia es

``` r
#install.packages("nycflights13")

library(nycflights13)
```

``` r
nycflights13::flights
```

    ## # A tibble: 336,776 × 19
    ##     year month   day dep_time sched_dep_time dep_delay arr_time sched_arr_time
    ##    <int> <int> <int>    <int>          <int>     <dbl>    <int>          <int>
    ##  1  2013     1     1      517            515         2      830            819
    ##  2  2013     1     1      533            529         4      850            830
    ##  3  2013     1     1      542            540         2      923            850
    ##  4  2013     1     1      544            545        -1     1004           1022
    ##  5  2013     1     1      554            600        -6      812            837
    ##  6  2013     1     1      554            558        -4      740            728
    ##  7  2013     1     1      555            600        -5      913            854
    ##  8  2013     1     1      557            600        -3      709            723
    ##  9  2013     1     1      557            600        -3      838            846
    ## 10  2013     1     1      558            600        -2      753            745
    ## # ℹ 336,766 more rows
    ## # ℹ 11 more variables: arr_delay <dbl>, carrier <chr>, flight <int>,
    ## #   tailnum <chr>, origin <chr>, dest <chr>, air_time <dbl>, distance <dbl>,
    ## #   hour <dbl>, minute <dbl>, time_hour <dttm>
…
Para R, no son fechas, así se vean como fechas.

``` r
prueba2$y <- parse_date(prueba2$y)

prueba2
```

    ## # A tibble: 2,000 × 2
    ##    x     y     
    ##    <chr> <date>
    ##  1 404   NA    
    ##  2 4172  NA    
    ##  3 3004  NA    
    ##  4 787   NA    
    ##  5 37    NA    
    ##  6 2332  NA    
    ##  7 2489  NA    
    ##  8 1449  NA    
    ##  9 3665  NA    
    ## 10 3863  NA    
    ## # ℹ 1,990 more rows
…
    ## Rows: 2000 Columns: 2
    ## ── Column specification ────────────────────────────────────────────────────────
    ## Delimiter: ","
    ## dbl  (1): x
    ## date (1): y
    ## 
    ## ℹ Use `spec()` to retrieve the full column specification for this data.
    ## ℹ Specify the column types or set `show_col_types = FALSE` to quiet this message.

``` r
prueba3
```

    ## # A tibble: 2,000 × 2
    ##        x y     
    ##    <dbl> <date>
    ##  1   404 NA    
    ##  2  4172 NA    
    ##  3  3004 NA    
    ##  4   787 NA    
    ##  5    37 NA    
    ##  6  2332 NA    
    ##  7  2489 NA    
    ##  8  1449 NA    
    ##  9  3665 NA    
    ## 10  3863 NA    
    ## # ℹ 1,990 more rows
…
